{
  "courses": [
    {
      "id": 1,
      "name": "The Complete 2020 Web Development Bootcamp",
      "description": "Welcome to the Complete Web Development Bootcamp, the only course you need to learn to code and become a full-stack web developer. With over 12,000 ratings and a 4.8 average, my Web Development course is one of the HIGHEST RATED courses in the history of Udemy!",
      "price": 125.99,
      "startDate": "Nov 27 2015 00:46:01 GMT+0500"
    },
    {
      "id": 2,
      "name": "2020 Complete Python Bootcamp From Zero to Hero in Python",
      "description": "Become a Python Programmer and learn one of employer's most requested skills of 2020! This is the most comprehensive, yet straight-forward, course for the Python programming language on Udemy! Whether you have never programmed before, already know basic syntax, or want to learn about the advanced features of Python, this course is for you! In this course we will teach you Python 3.",
      "price": 150.99,
      "startDate": "Dec 25 2020 00:46:01 GMT+0500"
    },
    {
      "id": 3,
      "name": "Learn Python Programming Masterclass",
      "description": "This course is aimed at complete beginners who have never programmed before, as well as existing programmers who want to increase their career options by learning Python. The fact is, Python is one of the most popular programming languages in the world – Huge companies like Google use it in mission critical applications like Google Search. And Python is the number one language choice for machine learning, data science and artificial intelligence. To get those high paying jobs you need an expert knowledge of Python, and that’s what you will get from this course.",
      "price": 129.99,
      "startDate": "Nov 27 2023 00:46:01 GMT+0500"
    },
    {
      "id": 4,
      "name": "Learning Python for Data Analysis and Visualization",
      "description": "This course will give you the resources to learn python and effectively use it analyze and visualize data! Start your career in Data Science! You'll get a full understanding of how to program with Python and how to use it in conjunction with scientific computing modules and libraries to analyze data. You will also get lifetime access to over 100 example python code notebooks, new and updated videos, as well as future additions of various data analysis projects that you can use for a portfolio to show future employers! ",
      "price": 250.99,
      "startDate": "Nov 27 2022 00:46:01 GMT+0500"
    },
    {
      "id": 5,
      "name": "The Python Mega Course: Build 10 Real World Applications",
      "description": "The Python Mega Course is the most practical course you will find on the web today. Here you will earn to build actual desktop programs, web applications, and even mobile apps entirely in Python 3. Here are the 10 apps you are going to develop: English Thesaurus - a program where users can find the word definitions Volcano Web Map - an interactive web map showing volcano locations Personal Website with Python - a website built entirely in Python Bookshop Database App - a desktop GUI app with a database backend Feel Good Mobile App - an Android & iOS app Webcam Motion Detector - starts the webcam and detects moving objects Real Estate Web Scraper - a program that extracts data from webpages Interactive Data Dashboard - a web-based fully interactive graph Database Web App - a web app that collects data & sends emails Geocoder Web App - a web app that converts addresses to coordinates",
      "price": 399.99,
      "startDate": "Nov 27 2012 00:46:01 GMT+0500"
    },
    {
      "id": 6,
      "name": "Automate the Boring Stuff with Python Programming",
      "description": "If you're an office worker, student, administrator, or just want to become more productive with your computer, programming will allow you write code that can automate tedious tasks. This course follows the popular (and free!) book, Automate the Boring Stuff with Python.",
      "price": 21.99,
      "startDate": "Nov 27 2015 00:46:01 GMT+0500"
    },
    {
      "id": 7,
      "name": "Python for Data Science and Machine Learning Bootcamp",
      "description": "Are you ready to start your path to becoming a Data Scientist! This comprehensive course will be your guide to learning how to use the power of Python to analyze data, create beautiful visualizations, and use powerful machine learning algorithms! Data Scientist has been ranked the number one job on Glassdoor and the average salary of a data scientist is over $120,000 in the United States according to Indeed! Data Science is a rewarding career that allows you to solve some of the world's most interesting problems!",
      "price": 129.99,
      "startDate": "Nov 27 2021 00:46:01 GMT+0500"
    },
    {
      "id": 8,
      "name": "Taming Big Data with Apache Spark and Python Hands On",
      "description": "New! Updated for Spark 3, more hands-on exercises, and a stronger focus on DataFrames and Structured Streaming. 'Big data' analysis is a hot and highly valuable skill – and this course will teach you the hottest technology in big data: Apache Spark. Employers including Amazon, EBay, NASA JPL, and Yahoo all use Spark to quickly extract meaning from massive data sets across a fault-tolerant Hadoop cluster. You'll learn those same techniques, using your own Windows system right at home. It's easier than you might think. Learn and master the art of framing data analysis problems as Spark problems through over 20 hands-on examples, and then scale them up to run on cloud computing services in this course. You'll be learning from an ex-engineer and senior manager from Amazon and IMDb.",
      "price": 22.99,
      "startDate": "Nov 27 2019 00:46:01 GMT+0500"
    },
    {
      "id": 9,
      "name": "iOS 13 & Swift 5 - The Complete iOS App Development Bootcamp",
      "description": "Welcome to the Complete iOS App Development Bootcamp. With over 39,000 5 star ratings and a 4.8 average my iOS course is the HIGHEST RATED iOS Course in the history of Udemy!\n\nAt 55+ hours, this iOS 13 course is the most comprehensive iOS development course online!\n\nThis Swift 5.1 course is based on our in-person app development bootcamp in London, where we've perfected the curriculum over 4 years of in-person teaching.\n\nOur complete app development bootcamp teaches you how to code using Swift 5.1 and build beautiful iOS 13 apps for iPhone and iPad. Even if you have ZERO programming experience.\n\nI'll take you step-by-step through engaging and fun video tutorials and teach you everything you need to know to succeed as an iOS app developer.\n\nThe course includes 55+ hours of HD video tutorials and builds your programming knowledge while making real world apps. e.g. Pokemon Go, Whatsapp, QuizUp and Yahoo Weather.\n\nThe curriculum has been completely revamped for iOS 13 and Xcode 11. Including comprehensive modules on Apple's latest technology - SwiftUI iOS, iPadOS and macOS app interface design, ARKit for making Augmented Reality apps as well as CoreML & CreateML for making intelligent apps with Machine Learning. You'll be building 3D augmented reality apps that look like Pokemon Go and Harry Potter's magical newspapers!",
      "price": 99.99,
      "startDate": "Nov 27 2018 00:46:01 GMT+0500"
    },
    {
      "id": 10,
      "name": "iOS 14, Swift 5 & SwiftUI - The iOS Development Starter Kit",
      "description": "Learning iOS development and creating compelling apps can become a comfortable and enjoyable endeavour with the right course. iOS 14, Swift 5 & SwiftUI - The  iOS Development Starter Kit is dedicated to creating the best possible learning experience with that in mind.\n\n\n\nMy name is Pao, the founder of Swift Starter Kit and your lead instructor for this course. You will learn how to build and deploy basic iOS apps from scratch using the latest and greatest in the Swift Programming language and the SwiftUI framework.\n\nThis course is for beginner-level developers who want to develop their own apps for the Apple ecosystem, primarily iOS and iPadOS. However, the skills you will gain from this course can also be used to create apps for macOS, tvOS, and watchOS. This course will focus primarily on development for iOS. You will learn everything about Apple app development and the Swift programming language from the ground up. No previous programming experience is necessary.",
      "price": 24.99,
      "startDate": "Nov 27 2016 00:46:01 GMT+0500"
    },
    {
      "id": 11,
      "name": "Angry Birds, Crossy Road & more: Game Development in Swift 4",
      "description": "Become a mobile game developer by building some of the most famous iOS Games like Angry Birds, Crossy Road, Color Switch and more.\n\nMobile game development is an incredibly extensive and exciting topic, which is why we have created this complete course that will allow you to become part of the amazing world of mobile game development. \n\nIn each chapter of this course we’ll learn all there is to know about a certain framework. We’ll take an in depth look at its functionality and the theory behind it. Then we’re going to use what we’ve learned and apply it by creating multiple games from scratch.",
      "price": 11,
      "startDate": "Nov 26 2020 00:46:01 GMT+0500"
    },
    {
      "id": 12,
      "name": "iOS 12 & Swift 5 - App Design, UI/UX plus Development",
      "description": "Welcome to the course that will take you from app design to code. This is a three-in-one course aimed at helping you master app design, UI/UX and iOS app development from absolute beginner to advanced professional.\n\nThe top iOS apps clearly set themselves apart from all the rest with amazing user interfaces and modern user experience design. We see them featured on the iOS App Store and as winners of Apple's Design Awards. This simply means that app design and UI/UX are key factors for successful apps. But surprisingly, traditional iOS courses only go as far as teaching you how to build apps with nothing on app design and UI/UX. This course is different in that it goes well beyond just teaching you how to code.This course includes app design and UI/UX to help you build the kind of apps that stand out on the App Store.",
      "price": 36,
      "startDate": "Nov 20 2020 00:46:01 GMT+0500"
    }
  ]
}
